127.0.0.1 - - [03/Aug/2020:12:08:28 +0530] "GET / HTTP/1.1" 404 751
0:0:0:0:0:0:0:1 - - [03/Aug/2020:12:08:29 +0530] "GET /Spring-Demo-MVC/ HTTP/1.1" 200 444
0:0:0:0:0:0:0:1 - - [03/Aug/2020:12:08:32 +0530] "GET /Spring-Demo-MVC/customer/showform HTTP/1.1" 200 916
0:0:0:0:0:0:0:1 - - [03/Aug/2020:12:08:34 +0530] "POST /Spring-Demo-MVC/customer/processform HTTP/1.1" 200 1200
0:0:0:0:0:0:0:1 - - [03/Aug/2020:12:08:39 +0530] "POST /Spring-Demo-MVC/customer/processform HTTP/1.1" 200 1199
0:0:0:0:0:0:0:1 - - [03/Aug/2020:12:09:19 +0530] "GET /Spring-Demo-MVC/customer/processform HTTP/1.1" 200 1200
0:0:0:0:0:0:0:1 - - [03/Aug/2020:12:09:20 +0530] "GET /favicon.ico HTTP/1.1" 404 762
0:0:0:0:0:0:0:1 - - [03/Aug/2020:12:10:15 +0530] "GET /Spring-Demo-MVC/ HTTP/1.1" 200 444
0:0:0:0:0:0:0:1 - - [03/Aug/2020:12:11:29 +0530] "GET /Spring-Demo-MVC/ HTTP/1.1" 200 444
0:0:0:0:0:0:0:1 - - [03/Aug/2020:12:11:32 +0530] "GET /Spring-Demo-MVC/customer/showform HTTP/1.1" 200 916
0:0:0:0:0:0:0:1 - - [03/Aug/2020:12:11:34 +0530] "POST /Spring-Demo-MVC/customer/processform HTTP/1.1" 200 1200
0:0:0:0:0:0:0:1 - - [03/Aug/2020:12:11:45 +0530] "POST /Spring-Demo-MVC/customer/processform HTTP/1.1" 200 1135
0:0:0:0:0:0:0:1 - - [03/Aug/2020:13:08:15 +0530] "POST /Spring-Demo-MVC/customer/processform HTTP/1.1" 500 8575
0:0:0:0:0:0:0:1 - - [03/Aug/2020:13:08:20 +0530] "GET /Spring-Demo-MVC/customer/showform HTTP/1.1" 200 916
0:0:0:0:0:0:0:1 - - [03/Aug/2020:13:08:21 +0530] "GET /Spring-Demo-MVC/customer/showform HTTP/1.1" 200 916
0:0:0:0:0:0:0:1 - - [03/Aug/2020:13:08:25 +0530] "POST /Spring-Demo-MVC/customer/processform HTTP/1.1" 500 8575
0:0:0:0:0:0:0:1 - - [03/Aug/2020:13:08:56 +0530] "GET /Spring-Demo-MVC/ HTTP/1.1" 200 444
0:0:0:0:0:0:0:1 - - [03/Aug/2020:13:09:00 +0530] "GET /Spring-Demo-MVC/customer/showform HTTP/1.1" 200 916
0:0:0:0:0:0:0:1 - - [03/Aug/2020:13:09:01 +0530] "POST /Spring-Demo-MVC/customer/processform HTTP/1.1" 500 8575
0:0:0:0:0:0:0:1 - - [03/Aug/2020:13:11:17 +0530] "GET /Spring-Demo-MVC/customer/showform HTTP/1.1" 200 916
0:0:0:0:0:0:0:1 - - [03/Aug/2020:13:12:10 +0530] "POST /Spring-Demo-MVC/customer/processform HTTP/1.1" 500 8575
0:0:0:0:0:0:0:1 - - [03/Aug/2020:13:12:18 +0530] "GET /Spring-Demo-MVC/customer/showform HTTP/1.1" 200 916
0:0:0:0:0:0:0:1 - - [03/Aug/2020:13:12:24 +0530] "POST /Spring-Demo-MVC/customer/processform HTTP/1.1" 200 1200
0:0:0:0:0:0:0:1 - - [03/Aug/2020:13:12:44 +0530] "POST /Spring-Demo-MVC/customer/processform HTTP/1.1" 200 1162
0:0:0:0:0:0:0:1 - - [03/Aug/2020:13:12:59 +0530] "POST /Spring-Demo-MVC/customer/processform HTTP/1.1" 200 1092
0:0:0:0:0:0:0:1 - - [03/Aug/2020:13:13:43 +0530] "GET /Spring-Demo-MVC/customer/showform HTTP/1.1" 200 916
0:0:0:0:0:0:0:1 - - [03/Aug/2020:13:13:52 +0530] "POST /Spring-Demo-MVC/customer/processform HTTP/1.1" 200 1167
0:0:0:0:0:0:0:1 - - [03/Aug/2020:13:13:57 +0530] "POST /Spring-Demo-MVC/customer/processform HTTP/1.1" 200 1095
0:0:0:0:0:0:0:1 - - [03/Aug/2020:13:14:12 +0530] "POST /Spring-Demo-MVC/customer/processform HTTP/1.1" 200 485
0:0:0:0:0:0:0:1 - - [03/Aug/2020:13:18:09 +0530] "GET /Spring-Demo-MVC/ HTTP/1.1" 200 444
